---
http_interactions:
- request:
    method: post
    uri: https://api.datadoghq.com/api/v2/services
    body:
      encoding: UTF-8
      string: '{"data":{"attributes":{"name":"Test-Get_a_list_of_all_incident_services_returns_OK_response-1618390728"},"type":"services"}}'
    headers:
      User-Agent:
      - datadog-api-client-ruby/1.0.0.beta.3.dev (ruby 2.6.3; os darwin19; arch x86_64)
      Content-Type:
      - application/json
      Accept:
      - application/json
      Expect:
      - ''
  response:
    status:
      code: 201
      message: Created
    headers:
      Date:
      - Wed, 14 Apr 2021 08:58:48 GMT
      Content-Type:
      - application/json
      Content-Length:
      - '1004'
      Connection:
      - keep-alive
      Pragma:
      - no-cache
      Cache-Control:
      - no-cache
      X-Dd-Version:
      - '35.4307086'
      X-Ratelimit-Limit:
      - '100'
      X-Ratelimit-Period:
      - '60'
      X-Ratelimit-Reset:
      - '12'
      X-Ratelimit-Remaining:
      - '98'
      X-Content-Type-Options:
      - nosniff
      Strict-Transport-Security:
      - max-age=15724800;
      Content-Security-Policy:
      - frame-ancestors 'self'; report-uri https://api.datadoghq.com/csp-report
      X-Frame-Options:
      - SAMEORIGIN
    body:
      encoding: UTF-8
      string: '{"included":[{"type":"users","id":"3ad549bf-eba0-11e9-a77a-0705486660d0","attributes":{"name":null,"handle":"frog@datadoghq.com","created_at":"2019-10-02T08:15:39.795051+00:00","modified_at":"2020-06-15T12:33:12.884459+00:00","email":"frog@datadoghq.com","icon":"https://secure.gravatar.com/avatar/28a16dfe36e73b60c1d55872cb0f1172?s=48&d=retro","title":null,"verified":true,"service_account":false,"disabled":false,"allowed_login_methods":[],"status":"Active"},"relationships":{"org":{"data":{"type":"orgs","id":"4dee724d-00cc-11ea-a77b-570c9d03c6c5"}}}}],"data":{"type":"services","id":"cb524082-2295-553b-9c2f-1bee7a49700b","attributes":{"name":"Test-Get_a_list_of_all_incident_services_returns_OK_response-1618390728","created":"2021-04-14T08:58:48.983542+00:00","modified":"2021-04-14T08:58:48.983542+00:00"},"relationships":{"last_modified_by":{"data":{"type":"users","id":"3ad549bf-eba0-11e9-a77a-0705486660d0"}},"created_by":{"data":{"type":"users","id":"3ad549bf-eba0-11e9-a77a-0705486660d0"}}}}}'
  recorded_at: Wed, 14 Apr 2021 08:58:48 GMT
- request:
    method: get
    uri: https://api.datadoghq.com/api/v2/services?filter=Test-Get_a_list_of_all_incident_services_returns_OK_response-1618390728
    body:
      encoding: US-ASCII
      string: ''
    headers:
      User-Agent:
      - datadog-api-client-ruby/1.0.0.beta.3.dev (ruby 2.6.3; os darwin19; arch x86_64)
      Content-Type:
      - application/json
      Accept:
      - application/json
      Expect:
      - ''
  response:
    status:
      code: 200
      message: OK
    headers:
      Date:
      - Wed, 14 Apr 2021 08:58:49 GMT
      Content-Type:
      - application/json
      Content-Length:
      - '550'
      Connection:
      - keep-alive
      Vary:
      - Accept-Encoding
      Pragma:
      - no-cache
      Cache-Control:
      - no-cache
      X-Dd-Version:
      - '35.4307086'
      X-Ratelimit-Limit:
      - '100'
      X-Ratelimit-Period:
      - '60'
      X-Ratelimit-Reset:
      - '11'
      X-Ratelimit-Remaining:
      - '99'
      X-Content-Type-Options:
      - nosniff
      Strict-Transport-Security:
      - max-age=15724800;
      Content-Security-Policy:
      - frame-ancestors 'self'; report-uri https://api.datadoghq.com/csp-report
      X-Frame-Options:
      - SAMEORIGIN
    body:
      encoding: UTF-8
      string: '{"meta":{"sort":"ASC","pagination":{"total":7459,"size":1,"next_offset":1,"offset":0},"total":7459},"data":[{"type":"services","id":"cb524082-2295-553b-9c2f-1bee7a49700b","attributes":{"name":"Test-Get_a_list_of_all_incident_services_returns_OK_response-1618390728","created":"2021-04-14T08:58:48.983542+00:00","modified":"2021-04-14T08:58:48.983542+00:00"},"relationships":{"last_modified_by":{"data":{"type":"users","id":"3ad549bf-eba0-11e9-a77a-0705486660d0"}},"created_by":{"data":{"type":"users","id":"3ad549bf-eba0-11e9-a77a-0705486660d0"}}}}]}'
  recorded_at: Wed, 14 Apr 2021 08:58:48 GMT
recorded_with: VCR 6.0.0
