---
http_interactions:
- request:
    method: post
    uri: https://api.datadoghq.com/api/v2/teams
    body:
      encoding: UTF-8
      string: '{"data":{"attributes":{"name":"Test-Get_a_list_of_all_incident_teams_returns_OK_response-1618390730"},"type":"teams"}}'
    headers:
      User-Agent:
      - datadog-api-client-ruby/1.0.0.beta.3.dev (ruby 2.6.3; os darwin19; arch x86_64)
      Content-Type:
      - application/json
      Accept:
      - application/json
      Expect:
      - ''
  response:
    status:
      code: 201
      message: Created
    headers:
      Date:
      - Wed, 14 Apr 2021 08:58:51 GMT
      Content-Type:
      - application/json
      Content-Length:
      - '998'
      Connection:
      - keep-alive
      Pragma:
      - no-cache
      Cache-Control:
      - no-cache
      X-Dd-Version:
      - '35.4307086'
      X-Ratelimit-Limit:
      - '100'
      X-Ratelimit-Period:
      - '60'
      X-Ratelimit-Reset:
      - '9'
      X-Ratelimit-Remaining:
      - '98'
      X-Dd-Debug:
      - F5gm0Rce1/Abr9/0Fw8HAqWfiz0FdiH8er/AXnN6lOn3L6KyGgbsLCwgPlob1No8
      X-Content-Type-Options:
      - nosniff
      Strict-Transport-Security:
      - max-age=15724800;
      Content-Security-Policy:
      - frame-ancestors 'self'; report-uri https://api.datadoghq.com/csp-report
      X-Frame-Options:
      - SAMEORIGIN
    body:
      encoding: UTF-8
      string: '{"included":[{"type":"users","id":"3ad549bf-eba0-11e9-a77a-0705486660d0","attributes":{"name":null,"handle":"frog@datadoghq.com","created_at":"2019-10-02T08:15:39.795051+00:00","modified_at":"2020-06-15T12:33:12.884459+00:00","email":"frog@datadoghq.com","icon":"https://secure.gravatar.com/avatar/28a16dfe36e73b60c1d55872cb0f1172?s=48&d=retro","title":null,"verified":true,"service_account":false,"disabled":false,"allowed_login_methods":[],"status":"Active"},"relationships":{"org":{"data":{"type":"orgs","id":"4dee724d-00cc-11ea-a77b-570c9d03c6c5"}}}}],"data":{"type":"teams","id":"9e56179a-bfe4-59bb-bbc1-b7956dcf2747","attributes":{"name":"Test-Get_a_list_of_all_incident_teams_returns_OK_response-1618390730","created":"2021-04-14T08:58:51.019472+00:00","modified":"2021-04-14T08:58:51.019472+00:00"},"relationships":{"last_modified_by":{"data":{"type":"users","id":"3ad549bf-eba0-11e9-a77a-0705486660d0"}},"created_by":{"data":{"type":"users","id":"3ad549bf-eba0-11e9-a77a-0705486660d0"}}}}}'
  recorded_at: Wed, 14 Apr 2021 08:58:50 GMT
- request:
    method: get
    uri: https://api.datadoghq.com/api/v2/teams?filter=Test-Get_a_list_of_all_incident_teams_returns_OK_response-1618390730
    body:
      encoding: US-ASCII
      string: ''
    headers:
      User-Agent:
      - datadog-api-client-ruby/1.0.0.beta.3.dev (ruby 2.6.3; os darwin19; arch x86_64)
      Content-Type:
      - application/json
      Accept:
      - application/json
      Expect:
      - ''
  response:
    status:
      code: 200
      message: OK
    headers:
      Date:
      - Wed, 14 Apr 2021 08:58:51 GMT
      Content-Type:
      - application/json
      Content-Length:
      - '544'
      Connection:
      - keep-alive
      Vary:
      - Accept-Encoding
      Pragma:
      - no-cache
      Cache-Control:
      - no-cache
      X-Dd-Version:
      - '35.4307086'
      X-Ratelimit-Limit:
      - '100'
      X-Ratelimit-Period:
      - '60'
      X-Ratelimit-Reset:
      - '9'
      X-Ratelimit-Remaining:
      - '99'
      X-Dd-Debug:
      - twvpGlmuom5y6A0pjGtXzTf554cmwJgTcCZ71fK4H/RDi+v5ehBK0zQiRcTJQG5C
      X-Content-Type-Options:
      - nosniff
      Strict-Transport-Security:
      - max-age=15724800;
      Content-Security-Policy:
      - frame-ancestors 'self'; report-uri https://api.datadoghq.com/csp-report
      X-Frame-Options:
      - SAMEORIGIN
    body:
      encoding: UTF-8
      string: '{"meta":{"sort":"ASC","pagination":{"total":1405,"size":1,"next_offset":1,"offset":0},"total":1405},"data":[{"type":"teams","id":"9e56179a-bfe4-59bb-bbc1-b7956dcf2747","attributes":{"name":"Test-Get_a_list_of_all_incident_teams_returns_OK_response-1618390730","created":"2021-04-14T08:58:51.019472+00:00","modified":"2021-04-14T08:58:51.019472+00:00"},"relationships":{"last_modified_by":{"data":{"type":"users","id":"3ad549bf-eba0-11e9-a77a-0705486660d0"}},"created_by":{"data":{"type":"users","id":"3ad549bf-eba0-11e9-a77a-0705486660d0"}}}}]}'
  recorded_at: Wed, 14 Apr 2021 08:58:50 GMT
recorded_with: VCR 6.0.0
